Custom solvers and tool calling • vitals
…
are_btw$eval(solver_chat = sonnet_3_7$clone())

Any arguments to solving or scoring functions can be passed directly
to $eval(), allowing for quickly evaluating tasks across
several parameterizations. We’ll just use Claude Sonnet 3.7 for now.

are_btw_data <- vitals_bind(are_btw)

are_btw_data
#> # A tibble: 29 × 4
#>    task    id                          score metadata         
#>    <chr>   <chr>                       <ord> <list>           
#>  1 are_btw after-stat-bar-heights      I     <tibble [1 × 10]>
#>  2 are_btw conditional-grouped-summary C     <tibble [1 × 10]>
#>  3 are_btw correlated-delays-reasoning P     <tibble [1 × 10]>
#>  4 are_btw curl-http-get               P     <tibble [1 × 10]>
#>  5 are_btw dropped-level-legend        I     <tibble [1 × 10]>
#>  6 are_btw filter-multiple-conditions  C     <tibble [1 × 10]>
#>  7 are_btw geocode-req-perform         C     <tibble [1 × 10]>
#>  8 are_btw group-by-summarize-message  C     <tibble [1 × 10]>
#>  9 are_btw grouped-filter-summarize    P     <tibble [1 × 10]>
#> 10 are_btw grouped-geom-line           C     <tibble [1 × 10]>
#> # ℹ 19 more rows
…
are_basic$eval()

(Note that we also could have used are_btw$set_solver()
here if we didn’t want to recreate the task.)

are_eval_data <- 
  # the argument names will become the entries in `task`
  vitals_bind(btw = are_btw, basic = are_basic) |>
  # and, in this case, different tasks correspond to different solvers
  rename(solver = task)

are_eval_data
#> # A tibble: 58 × 4
#>    solver id                          score metadata         
#>    <chr>  <chr>                       <ord> <list>           
#>  1 btw    after-stat-bar-heights      I     <tibble [1 × 10]>
#>  2 btw    conditional-grouped-summary C     <tibble [1 × 10]>
#>  3 btw    correlated-delays-reasoning P     <tibble [1 × 10]>
#>  4 btw    curl-http-get               P     <tibble [1 × 10]>
#>  5 btw    dropped-level-legend        I     <tibble [1 × 10]>
#>  6 btw    filter-multiple-conditions  C     <tibble [1 × 10]>
#>  7 btw    geocode-req-perform         C     <tibble [1 × 10]>
#>  8 btw    group-by-summarize-message  C     <tibble [1 × 10]>
#>  9 btw    grouped-filter-summarize    P     <tibble [1 × 10]>
#> 10 btw    grouped-geom-line           C     <tibble [1 × 10]>
#> # ℹ 48 more rows
…
