An R Eval — are • rinspect
…
knowledge
List. Required knowledge/concepts for solving the problem.

    Source

    Posit Community, GitHub issues, R4DS solutions, etc. For row-level
references, see source.

    Examples

are
#> # A tibble: 28 × 7
#>    title                       input        target domain task  source knowledge
#>    <chr>                       <chr>        <chr>  <chr>  <chr> <chr>  <list>   
#>  1 after-stat-bar-heights      "This bar c… "Pref… Data … New … https… <chr [1]>
#>  2 conditional-grouped-summary "I have a s… "One … Data … New … https… <chr [1]>
#>  3 correlated-delays-reasoning "Here's som… "Nota… Data … New … NA     <chr [1]>
#>  4 curl-http-get               "I have the… "Ther… Progr… Debu… https… <chr [1]>
#>  5 dropped-level-legend        "I'd like t… "Also… Data … New … https… <chr [1]>
#>  6 geocode-req-perform         "I am tryin… "Form… Data … Debu… https… <chr [1]>
#>  7 ggplot-breaks-feature       "Here's a f… "```\… Progr… New … https… <chr [1]>
#>  8 ggplot-breaks-feature       "Here's a f… "```\… Progr… New … https… <chr [1]>
#>  9 grouped-filter-summarize    "Here's som… "Ther… Data … New … NA     <chr [1]>
#> 10 grouped-mutate              "I get an e… "From… Data … Debu… https… <chr [1]>
#> # ℹ 18 more rows
…
