Analyzing evaluation results • vitals
…
Passing the evaluated tasks to vitals_bind() will
concatenate the results into a tabular data frame:

are_eval <-
  vitals_bind(
    `Claude 4 Sonnet` = are_claude,
    `GPT 4.1` = are_gpt,
    `Gemini 2.5 Pro` = are_gemini
  ) %>%
  rename(LLM = task)

are_eval

## # A tibble: 225 × 5
##    LLM             id                          epoch score metadata
##    <chr>           <chr>                       <int> <ord> <list>  
##  1 Claude 4 Sonnet after-stat-bar-heights          1 I     <tibble>
##  2 Claude 4 Sonnet after-stat-bar-heights          2 I     <tibble>
##  3 Claude 4 Sonnet after-stat-bar-heights          3 I     <tibble>
##  4 Claude 4 Sonnet conditional-grouped-summary     1 C     <tibble>
##  5 Claude 4 Sonnet conditional-grouped-summary     2 C     <tibble>
##  6 Claude 4 Sonnet conditional-grouped-summary     3 C     <tibble>
##  7 Claude 4 Sonnet correlated-delays-reasoning     1 P     <tibble>
##  8 Claude 4 Sonnet correlated-delays-reasoning     2 P     <tibble>
##  9 Claude 4 Sonnet correlated-delays-reasoning     3 C     <tibble>
## 10 Claude 4 Sonnet curl-http-get                   1 I     <tibble>
## # ℹ 215 more rows
…
Independent Data

Let’s first consider the case where each of the rows in
are_eval are statistically independent, conditional on
LLM. Said another way, we can keep only the rows for the
first epoch:

are_eval_single <- are_eval %>% filter(epoch == 1)

are_eval_single

## # A tibble: 75 × 5
##    LLM             id                          epoch score metadata
##    <fct>           <chr>                       <int> <ord> <list>  
##  1 Claude 4 Sonnet after-stat-bar-heights          1 I     <tibble>
##  2 Claude 4 Sonnet conditional-grouped-summary     1 C     <tibble>
##  3 Claude 4 Sonnet correlated-delays-reasoning     1 P     <tibble>
##  4 Claude 4 Sonnet curl-http-get                   1 I     <tibble>
##  5 Claude 4 Sonnet dropped-level-legend            1 I     <tibble>
##  6 Claude 4 Sonnet geocode-req-perform             1 C     <tibble>
##  7 Claude 4 Sonnet grouped-filter-summarize        1 P     <tibble>
##  8 Claude 4 Sonnet grouped-mutate                  1 C     <tibble>
##  9 Claude 4 Sonnet implement-nse-arg               1 P     <tibble>
## 10 Claude 4 Sonnet jitter-one-axis                 1 C     <tibble>
## # ℹ 65 more rows
…
