Getting started with rinspect • rinspect
…
Creating an evaluation task

task_create() situates a dataset inside of an evaluation
task, a subclass of a tibble with some additional
attributes to track the experiment. Any dataset is fair game as long as
it has columns input and target. The
name argument is optional, but we’ll specify it here:

are_task <- task_create(dataset = are, name = "An R Eval")
are_task

#> # Evaluation task An R Eval.
#> # A tibble: 29 × 8
#>    title                       input  target domain task  source knowledge    id
#>  * <chr>                       <chr>  <chr>  <chr>  <chr> <chr>  <list>    <int>
#>  1 after-stat-bar-heights      "This… "Pref… Data … New … https… <chr [1]>     1
#>  2 conditional-grouped-summary "I ha… "One … Data … New … https… <chr [1]>     2
#>  3 correlated-delays-reasoning "Here… "Nota… Data … New … NA     <chr [1]>     3
#>  4 curl-http-get               "I ha… "Ther… Progr… Debu… https… <chr [1]>     4
#>  5 dropped-level-legend        "I'd … "Also… Data … New … https… <chr [1]>     5
#>  6 geocode-req-perform         "I am… "Form… Data … Debu… https… <chr [1]>     6
#>  7 ggplot-breaks-feature       "Here… "```\… Progr… New … https… <chr [1]>     7
#>  8 ggplot-breaks-feature       "Here… "```\… Progr… New … https… <chr [1]>     8
#>  9 grouped-filter-summarize    "Here… "Ther… Data … New … NA     <chr [1]>     9
#> 10 grouped-mutate              "I ge… "From… Data … Debu… https… <chr [1]>    10
#> # ℹ 19 more rows
…
